module word_of_wisdom

go 1.18

require (
	github.com/kelseyhightower/envconfig v1.4.0
	github.com/rs/zerolog v1.26.1
	github.com/stretchr/testify v1.7.1
)

require (
	github.com/davecgh/go-spew v1.1.1 // indirect
	github.com/pmezard/go-difflib v1.0.0 // indirect
	gopkg.in/yaml.v3 v3.0.0 // indirect
)
